…
``` r
# Some of the column names for variables we want to work with are
# unintuitive, let's update a couple of them:
colnames(df)[which(colnames(df) %in% c("V3014",
                                       "V3018"))] <- c("AGE",
                                                       "SEX")

# Now let's extract just the columns we want to work with:
(df <- df %>%
   select(YEAR, YEARQ, IDPER, AGE, SEX,
          EDUC, YIH, VIOLENT, NONVIOLENT))
```

    ## # A tibble: 45,776 × 9
    ##     YEAR YEARQ IDPER      AGE   SEX    EDUC    YIH VIOLENT NONVIOLENT
    ##    <dbl> <fct> <fct>      <fct> <fct>  <fct> <dbl>   <dbl>      <dbl>
    ##  1  2000 001   2000966984 40-49 Male   FE       10       0          0
    ##  2  2000 001   2000951294 40-49 Female FE        9       0          0
    ##  3  2000 001   2000470356 12-17 Male   NHSE      9       0          0
    ##  4  2000 001   2000205990 35-39 Male   FE        4       0          0
    ##  5  2000 001   2000361146 30-34 Female FE        4       1          0
    ##  6  2000 001   2000879996 40-49 Male   HSE       6       0          0
    ##  7  2000 001   2000840437 40-49 Female HSE       6       0          0
    ##  8  2000 001   2000494053 35-39 Male   HSE      11       0          0
    ##  9  2000 001   2000833192 40-49 Female HSE      11       0          0
    ## 10  2000 001   2000365150 30-34 Female HSE       8       0          1
    ## # ℹ 45,766 more rows
…
``` r
df %>% group_by(AGE) %>% count(EDUC)
```

    ## # A tibble: 46 × 3
    ## # Groups:   AGE [8]
    ##    AGE   EDUC      n
    ##    <fct> <fct> <int>
    ##  1 12-17 NHSE   2365
    ##  2 12-17 HSE    1915
    ##  3 12-17 FE        7
    ##  4 12-17 MA        2
    ##  5 12-17 <NA>     93
    ##  6 18-24 NHSE    123
    ##  7 18-24 HSE    2063
    ##  8 18-24 FE     1541
    ##  9 18-24 MA       22
    ## 10 18-24 <NA>    196
    ## # ℹ 36 more rows
…
  group_by(AGE) %>%
  mutate(ColPcnt = (n / sum(n)) * 100) %>%        # Col Percentages

  ungroup() %>%
  group_by(EDUC) %>%
  mutate(RowPcnt = (n / sum(n)) * 100) %>%        # Row Percentages

  ungroup() %>%
  mutate(CellPcnt = (n / sum(n)) * 100)           # Cell Percentagees
```

    ## # A tibble: 31 × 6
    ##    AGE   EDUC      n ColPcnt RowPcnt CellPcnt
    ##    <fct> <fct> <int>   <dbl>   <dbl>    <dbl>
    ##  1 12-17 NHSE     18   56.2    90       8.07 
    ##  2 12-17 HSE      13   40.6    13.5     5.83 
    ##  3 12-17 <NA>      1    3.12    6.67    0.448
    ##  4 18-24 HSE      32   66.7    33.3    14.3  
    ##  5 18-24 FE       11   22.9    13.8     4.93 
    ##  6 18-24 <NA>      5   10.4    33.3     2.24 
    ##  7 25-29 NHSE      1    4       5       0.448
    ##  8 25-29 HSE      12   48      12.5     5.38 
    ##  9 25-29 FE        9   36      11.2     4.04 
    ## 10 25-29 MA        1    4       9.09    0.448
    ## # ℹ 21 more rows
…
