…
# If you did want to create an additive scale, you could use
# the composite() function:
person %>% 
  dplyr::select(VIOLENT, NONVIOLENT) %>%
  mutate(VIC = rowSums(.))
```

    ## # A tibble: 41,742 × 3
    ##    VIOLENT NONVIOLENT   VIC
    ##      <dbl>      <dbl> <dbl>
    ##  1       0          0     0
    ##  2       0          0     0
    ##  3       0          0     0
    ##  4       0          0     0
    ##  5       1          0     1
    ##  6       0          0     0
    ##  7       0          0     0
    ##  8       0          0     0
    ##  9       0          0     0
    ## 10       0          1     1
    ## # ℹ 41,732 more rows
…
