…
## 3. Data Manipulation

``` r
# While indexing is an important skill, there are more convenient ways
# of manipulating data in R. Tidyverse, and more specifically dplyr,
# offer a range of important tools for data manipulation.

# Filtering (subsetting by logical operation):
household %>%
  filter(YEAR >= 2010,
         LAND_USE == "Rural")
```

    ## # A tibble: 1,949 × 6
    ##     YEAR YEARQ IDHH       INCOME             LAND_USE WGTHH
    ##    <dbl> <fct> <fct>      <fct>              <fct>    <dbl>
    ##  1  2010 101   2010853697 $12,500 to $14,999 Rural    2391.
    ##  2  2010 101   2010563082 <NA>               Rural       0 
    ##  3  2010 101   2010839301 <NA>               Rural    1730.
    ##  4  2010 101   2010291790 <NA>               Rural       0 
    ##  5  2010 101   2010851071 $40,000 to $49,999 Rural    1136.
    ##  6  2010 101   2010798616 $25,000 to $29,999 Rural    1407.
    ##  7  2010 101   2010420458 <NA>               Rural       0 
    ##  8  2010 101   2010639250 <NA>               Rural       0 
    ##  9  2010 101   2010145118 $20,000 to $24,999 Rural     774.
    ## 10  2010 101   2010749632 $50,000 to $74,999 Rural    1030.
    ## # ℹ 1,939 more rows

``` r
# Arranging (sorting the data by a variable)
household %>%
  arrange(YEAR,
          LAND_USE)
```

    ## # A tibble: 31,513 × 6
    ##     YEAR YEARQ IDHH       INCOME             LAND_USE WGTHH
    ##    <dbl> <fct> <fct>      <fct>              <fct>    <dbl>
    ##  1  2000 001   2000993788 $75,000 and over   Urban     836.
    ##  2  2000 001   2000167846 $50,000 to $74,999 Urban    1052.
    ##  3  2000 001   2000733306 $25,000 to $29,999 Urban     836.
    ##  4  2000 001   2000111147 $40,000 to $49,999 Urban     840.
    ##  5  2000 001   2000514983 $25,000 to $29,999 Urban    1052.
    ##  6  2000 001   2000665487 $30,000 to $34,999 Urban    1185.
    ##  7  2000 001   2000362293 $75,000 and over   Urban     946.
    ##  8  2000 001   2000758454 $40,000 to $49,999 Urban     828.
    ##  9  2000 001   2000532321 $50,000 to $74,999 Urban    1185.
    ## 10  2000 001   2000967150 <NA>               Urban     893.
    ## # ℹ 31,503 more rows

``` r
# Selecting (extracting specific variables)
household %>%
  select(YEAR,
         LAND_USE)
```

    ## # A tibble: 31,513 × 2
    ##     YEAR LAND_USE
    ##    <dbl> <fct>   
    ##  1  2000 Urban   
    ##  2  2000 Urban   
    ##  3  2000 Urban   
    ##  4  2000 Urban   
    ##  5  2000 Urban   
    ##  6  2000 Rural   
    ##  7  2000 Rural   
    ##  8  2000 Rural   
    ##  9  2000 Rural   
    ## 10  2000 Urban   
    ## # ℹ 31,503 more rows
…
    ## # A tibble: 1 × 5
    ##   median  mean    sd   min   max
    ##    <dbl> <dbl> <dbl> <dbl> <dbl>
    ## 1     12  10.8  3.50     1    14

``` r
# The group_by() function will let you easily calculate
# group-level descriptive statistics.
household %>%
  group_by(YEAR,
           LAND_USE)
```

    ## # A tibble: 31,513 × 6
    ## # Groups:   YEAR, LAND_USE [32]
    ##     YEAR YEARQ IDHH       INCOME             LAND_USE WGTHH
    ##    <dbl> <fct> <fct>      <fct>              <fct>    <dbl>
    ##  1  2000 001   2000993788 $75,000 and over   Urban     836.
    ##  2  2000 001   2000167846 $50,000 to $74,999 Urban    1052.
    ##  3  2000 001   2000733306 $25,000 to $29,999 Urban     836.
    ##  4  2000 001   2000111147 $40,000 to $49,999 Urban     840.
    ##  5  2000 001   2000514983 $25,000 to $29,999 Urban    1052.
    ##  6  2000 001   2000303653 <NA>               Rural     845.
    ##  7  2000 001   2000160785 $7,500 to $9,999   Rural     905.
    ##  8  2000 001   2000697120 $15,000 to $17,499 Rural     845.
    ##  9  2000 001   2000995639 $7,500 to $9,999   Rural     905.
    ## 10  2000 001   2000665487 $30,000 to $34,999 Urban    1185.
    ## # ℹ 31,503 more rows

``` r
# The mutate() function will let you quickly manipulate
# or update an existing variable, creating or overwriting
# the variable you manipulate. Here, we are creating
# a variable called "INC" that is a numeric vector
# version of the original "INCOME" factor vector.
(household <- household %>%
   mutate(INC = as.numeric(INCOME)))
```

    ## # A tibble: 31,513 × 7
    ##     YEAR YEARQ IDHH       INCOME             LAND_USE WGTHH   INC
    ##    <dbl> <fct> <fct>      <fct>              <fct>    <dbl> <dbl>
    ##  1  2000 001   2000993788 $75,000 and over   Urban     836.    14
    ##  2  2000 001   2000167846 $50,000 to $74,999 Urban    1052.    13
    ##  3  2000 001   2000733306 $25,000 to $29,999 Urban     836.     9
    ##  4  2000 001   2000111147 $40,000 to $49,999 Urban     840.    12
    ##  5  2000 001   2000514983 $25,000 to $29,999 Urban    1052.     9
    ##  6  2000 001   2000303653 <NA>               Rural     845.    NA
    ##  7  2000 001   2000160785 $7,500 to $9,999   Rural     905.     3
    ##  8  2000 001   2000697120 $15,000 to $17,499 Rural     845.     6
    ##  9  2000 001   2000995639 $7,500 to $9,999   Rural     905.     3
    ## 10  2000 001   2000665487 $30,000 to $34,999 Urban    1185.    10
    ## # ℹ 31,503 more rows

``` r
# You would also use the mutate() function to create
# centered or standardized variables.
## Centered:
household %>%
  mutate(INC_CEN = INC - mean(INC, na.rm = TRUE))
```

    ## # A tibble: 31,513 × 8
    ##     YEAR YEARQ IDHH       INCOME             LAND_USE WGTHH   INC INC_CEN
    ##    <dbl> <fct> <fct>      <fct>              <fct>    <dbl> <dbl>   <dbl>
    ##  1  2000 001   2000993788 $75,000 and over   Urban     836.    14   2.75 
    ##  2  2000 001   2000167846 $50,000 to $74,999 Urban    1052.    13   1.75 
    ##  3  2000 001   2000733306 $25,000 to $29,999 Urban     836.     9  -2.25 
    ##  4  2000 001   2000111147 $40,000 to $49,999 Urban     840.    12   0.754
    ##  5  2000 001   2000514983 $25,000 to $29,999 Urban    1052.     9  -2.25 
    ##  6  2000 001   2000303653 <NA>               Rural     845.    NA  NA    
    ##  7  2000 001   2000160785 $7,500 to $9,999   Rural     905.     3  -8.25 
    ##  8  2000 001   2000697120 $15,000 to $17,499 Rural     845.     6  -5.25 
    ##  9  2000 001   2000995639 $7,500 to $9,999   Rural     905.     3  -8.25 
    ## 10  2000 001   2000665487 $30,000 to $34,999 Urban    1185.    10  -1.25 
    ## # ℹ 31,503 more rows

``` r
## Z-Score Standardized:
household %>%
  mutate(INC_STD = (INC - mean(INC, na.rm = TRUE)) / sd(INC, na.rm = TRUE))
```

    ## # A tibble: 31,513 × 8
    ##     YEAR YEARQ IDHH       INCOME             LAND_USE WGTHH   INC INC_STD
    ##    <dbl> <fct> <fct>      <fct>              <fct>    <dbl> <dbl>   <dbl>
    ##  1  2000 001   2000993788 $75,000 and over   Urban     836.    14   0.821
    ##  2  2000 001   2000167846 $50,000 to $74,999 Urban    1052.    13   0.523
    ##  3  2000 001   2000733306 $25,000 to $29,999 Urban     836.     9  -0.669
    ##  4  2000 001   2000111147 $40,000 to $49,999 Urban     840.    12   0.225
    ##  5  2000 001   2000514983 $25,000 to $29,999 Urban    1052.     9  -0.669
    ##  6  2000 001   2000303653 <NA>               Rural     845.    NA  NA    
    ##  7  2000 001   2000160785 $7,500 to $9,999   Rural     905.     3  -2.46 
    ##  8  2000 001   2000697120 $15,000 to $17,499 Rural     845.     6  -1.56 
    ##  9  2000 001   2000995639 $7,500 to $9,999   Rural     905.     3  -2.46 
    ## 10  2000 001   2000665487 $30,000 to $34,999 Urban    1185.    10  -0.371
    ## # ℹ 31,503 more rows

``` r
household %>%
  mutate(INC_STD = scale(INC))
```

    ## # A tibble: 31,513 × 8
    ##     YEAR YEARQ IDHH       INCOME             LAND_USE WGTHH   INC INC_STD[,1]
    ##    <dbl> <fct> <fct>      <fct>              <fct>    <dbl> <dbl>       <dbl>
    ##  1  2000 001   2000993788 $75,000 and over   Urban     836.    14       0.821
    ##  2  2000 001   2000167846 $50,000 to $74,999 Urban    1052.    13       0.523
    ##  3  2000 001   2000733306 $25,000 to $29,999 Urban     836.     9      -0.669
    ##  4  2000 001   2000111147 $40,000 to $49,999 Urban     840.    12       0.225
    ##  5  2000 001   2000514983 $25,000 to $29,999 Urban    1052.     9      -0.669
    ##  6  2000 001   2000303653 <NA>               Rural     845.    NA      NA    
    ##  7  2000 001   2000160785 $7,500 to $9,999   Rural     905.     3      -2.46 
    ##  8  2000 001   2000697120 $15,000 to $17,499 Rural     845.     6      -1.56 
    ##  9  2000 001   2000995639 $7,500 to $9,999   Rural     905.     3      -2.46 
    ## 10  2000 001   2000665487 $30,000 to $34,999 Urban    1185.    10      -0.371
    ## # ℹ 31,503 more rows
…
  mutate(INC = as.numeric(INCOME)) %>%

  group_by(YEAR,
           LAND_USE) %>%

  summarise(across(c(INC, WGTHH), ~ mean(.x, na.rm = TRUE)))
```

    ## `summarise()` has grouped output by 'YEAR'. You can override using the
    ## `.groups` argument.

    ## # A tibble: 32 × 4
    ## # Groups:   YEAR [16]
    ##     YEAR LAND_USE   INC WGTHH
    ##    <dbl> <fct>    <dbl> <dbl>
    ##  1  2000 Urban     11.2  911.
    ##  2  2000 Rural     11.2  821.
    ##  3  2001 Urban     10.9  894.
    ##  4  2001 Rural     11.9  834.
    ##  5  2002 Urban     11.4  913.
    ##  6  2002 Rural     11.7  869.
    ##  7  2003 Urban     11.3  868.
    ##  8  2003 Rural     11.4  922.
    ##  9  2004 Urban     11.3  865.
    ## 10  2004 Rural     11.5  895.
    ## # ℹ 22 more rows
…
# Long format includes repeating observations for each level of the group ID.
# Wide format includes repeating variables for each level of the group ID.

# For longitudinal panel data - with repeating observations of the same people,
# states, or other unit of analysis - the group ID is the "year" variable.

# Here, I am going to demonstrate reshaping the person-level data by household.

# Long (each row is a person):
(df <- person %>%
   select(IDPER, IDHH, YEARQ, V3020))
```

    ## # A tibble: 45,776 × 4
    ##    IDPER      IDHH       YEARQ V3020      
    ##    <fct>      <fct>      <fct> <fct>      
    ##  1 2000966984 2000993788 001   College    
    ##  2 2000951294 2000993788 001   College    
    ##  3 2000470356 2000993788 001   Elementary 
    ##  4 2000205990 2000167846 001   College    
    ##  5 2000361146 2000167846 001   College    
    ##  6 2000879996 2000733306 001   High school
    ##  7 2000840437 2000733306 001   High school
    ##  8 2000494053 2000111147 001   High school
    ##  9 2000833192 2000111147 001   High school
    ## 10 2000365150 2000514983 001   High school
    ## # ℹ 45,766 more rows
``` r
# Wide (each row is a household):
(df <- df %>%

   group_by(IDHH, YEARQ) %>%        # Group by IDHH and Year/Quarter

   mutate(HHM = 1) %>%              # Create a 'ticker' that
   mutate(HHM = cumsum(HHM)) %>%    # numbers household members

   pivot_wider(id_cols = c(IDHH, YEARQ),            # Reshape the data
               names_from = HHM,                    # to wide format
               values_from = c(IDPER, V3020)))
```

    ## # A tibble: 24,103 × 20
    ## # Groups:   IDHH, YEARQ [24,103]
    ##    IDHH    YEARQ IDPER_1 IDPER_2 IDPER_3 IDPER_4 IDPER_5 IDPER_6 IDPER_7 IDPER_8
    ##    <fct>   <fct> <fct>   <fct>   <fct>   <fct>   <fct>   <fct>   <fct>   <fct>  
    ##  1 200099… 001   200096… 200095… 200047… <NA>    <NA>    <NA>    <NA>    <NA>   
    ##  2 200016… 001   200020… 200036… <NA>    <NA>    <NA>    <NA>    <NA>    <NA>   
    ##  3 200073… 001   200087… 200084… <NA>    <NA>    <NA>    <NA>    <NA>    <NA>   
    ##  4 200011… 001   200049… 200083… <NA>    <NA>    <NA>    <NA>    <NA>    <NA>   
    ##  5 200051… 001   200036… <NA>    <NA>    <NA>    <NA>    <NA>    <NA>    <NA>   
    ##  6 200030… 001   200051… <NA>    <NA>    <NA>    <NA>    <NA>    <NA>    <NA>   
    ##  7 200016… 001   200072… 200031… <NA>    <NA>    <NA>    <NA>    <NA>    <NA>   
    ##  8 200069… 001   200057… <NA>    <NA>    <NA>    <NA>    <NA>    <NA>    <NA>   
    ##  9 200099… 001   200088… <NA>    <NA>    <NA>    <NA>    <NA>    <NA>    <NA>   
    ## 10 200066… 001   200086… 200060… <NA>    <NA>    <NA>    <NA>    <NA>    <NA>   
    ## # ℹ 24,093 more rows
    ## # ℹ 10 more variables: IDPER_9 <fct>, V3020_1 <fct>, V3020_2 <fct>,
    ## #   V3020_3 <fct>, V3020_4 <fct>, V3020_5 <fct>, V3020_6 <fct>, V3020_7 <fct>,
    ## #   V3020_8 <fct>, V3020_9 <fct>

``` r
# Back to Long!
(df <- df %>%
   pivot_longer(cols = IDPER_1:V3020_9,
                names_to = c(".value", "HH_MEMBER"),
                names_sep = "_") %>%
   drop_na(c(IDPER, V3020)))
```

    ## # A tibble: 43,971 × 5
    ## # Groups:   IDHH, YEARQ [23,052]
    ##    IDHH       YEARQ HH_MEMBER IDPER      V3020      
    ##    <fct>      <fct> <chr>     <fct>      <fct>      
    ##  1 2000993788 001   1         2000966984 College    
    ##  2 2000993788 001   2         2000951294 College    
    ##  3 2000993788 001   3         2000470356 Elementary 
    ##  4 2000167846 001   1         2000205990 College    
    ##  5 2000167846 001   2         2000361146 College    
    ##  6 2000733306 001   1         2000879996 High school
    ##  7 2000733306 001   2         2000840437 High school
    ##  8 2000111147 001   1         2000494053 High school
    ##  9 2000111147 001   2         2000833192 High school
    ## 10 2000514983 001   1         2000365150 High school
    ## # ℹ 43,961 more rows
…
# Next, we need to (a) filter the incident data to only include violent
# victimizations, (b) group by person ID (and year/quarter), and
# (c) aggregate from the incident-level to the person-level.
(vbl <- incident %>%
   filter(VIOLENT) %>%
   group_by(YEARQ, IDPER) %>%
   summarise(WGTVIC_V = mean(WGTVIC),
             VIOLENT = sum(VIOLENT * SERIESWGT)))
```

    ## `summarise()` has grouped output by 'YEARQ'. You can override using the
    ## `.groups` argument.

    ## # A tibble: 262 × 4
    ## # Groups:   YEARQ [63]
    ##    YEARQ IDPER      WGTVIC_V VIOLENT
    ##    <fct> <fct>         <dbl>   <dbl>
    ##  1 001   2000203259    1634.       1
    ##  2 001   2000324505    1886.       1
    ##  3 001   2000361146    2202.       1
    ##  4 001   2000486531    1694.       1
    ##  5 001   2000585923    3415.       1
    ##  6 001   2000638577    3165.       1
    ##  7 001   2000640200    3011.       1
    ##  8 001   2000664422    1626.       1
    ##  9 001   2000713056    2494.       1
    ## 10 001   2000778432    2423.       1
    ## # ℹ 252 more rows

``` r
(nvbl <- incident %>%
   filter(NONVIOLENT) %>%
   group_by(YEARQ, IDPER) %>%
   summarise(WGTVIC_NV = mean(WGTVIC),
             NONVIOLENT = sum(NONVIOLENT * SERIESWGT)))
```

    ## `summarise()` has grouped output by 'YEARQ'. You can override using the
    ## `.groups` argument.

    ## # A tibble: 1,376 × 4
    ## # Groups:   YEARQ [64]
    ##    YEARQ IDPER      WGTVIC_NV NONVIOLENT
    ##    <fct> <fct>          <dbl>      <dbl>
    ##  1 001   2000126695     1975.          1
    ##  2 001   2000220530     1893.          1
    ##  3 001   2000264479     3186.          1
    ##  4 001   2000276410     1612.          2
    ##  5 001   2000292627     1590.          1
    ##  6 001   2000335184     1673.          1
    ##  7 001   2000339862     1629.          2
    ##  8 001   2000345273     1913.          1
    ##  9 001   2000365150     2104.          1
    ## 10 001   2000387989     3395.          1
    ## # ℹ 1,366 more rows

``` r
# Now, let's merge this violent victimization variable onto the
# person-level data. To do this, you use left_join() and specify
# the variables you want to match with the "by" option:
(person <- person %>%
   left_join(vbl, by = c("YEARQ", "IDPER")) %>%
   left_join(nvbl, by = c("YEARQ", "IDPER")) %>%
   mutate(VIOLENT = if_else(is.na(VIOLENT), 0, VIOLENT),
          NONVIOLENT = if_else(is.na(NONVIOLENT), 0, NONVIOLENT)))
```

    ## # A tibble: 45,776 × 13
    ##     YEAR YEARQ IDPER      IDHH   V3014 V3018 V3020 WGTPER   YIH WGTVIC_V VIOLENT
    ##    <dbl> <fct> <fct>      <fct>  <fct> <fct> <fct>  <dbl> <dbl>    <dbl>   <dbl>
    ##  1  2000 001   2000966984 20009… 40-49 Male  Coll…  1063.    10      NA        0
    ##  2  2000 001   2000951294 20009… 40-49 Fema… Coll…   894.     9      NA        0
    ##  3  2000 001   2000470356 20009… 12-17 Male  Elem…  1317.     9      NA        0
    ##  4  2000 001   2000205990 20001… 35-39 Male  Coll…  1093.     4      NA        0
    ##  5  2000 001   2000361146 20001… 30-34 Fema… Coll…  1101.     4    2202.       1
    ##  6  2000 001   2000879996 20007… 40-49 Male  High…  1063.     6      NA        0
    ##  7  2000 001   2000840437 20007… 40-49 Fema… High…   894.     6      NA        0
    ##  8  2000 001   2000494053 20001… 35-39 Male  High…  1098.    11      NA        0
    ##  9  2000 001   2000833192 20001… 40-49 Fema… High…   899.    11      NA        0
    ## 10  2000 001   2000365150 20005… 30-34 Fema… High…  1101.     8      NA        0
    ## # ℹ 45,766 more rows
    ## # ℹ 2 more variables: WGTVIC_NV <dbl>, NONVIOLENT <dbl>

``` r
# Calculate the adjusted victimization adjustment factor (weights)
# per the NCVS codebook. Multiply this adjustment factor by
# the violent victimization variable (VIOLENT) to create a
# weighted violent victimization (VLNT_WGT) variable:
(person <- person %>%
   mutate(ADJINC_WT_V = if_else(!is.na(WGTVIC_V), WGTVIC_V / WGTPER, 0),
          VLNT_WGT_V = VIOLENT * ADJINC_WT_V,
          ADJINC_WT_NV = if_else(!is.na(WGTVIC_NV), WGTVIC_NV / WGTPER, 0),
          NVLNT_WGT_V = NONVIOLENT * ADJINC_WT_NV))
```

    ## # A tibble: 45,776 × 17
    ##     YEAR YEARQ IDPER      IDHH   V3014 V3018 V3020 WGTPER   YIH WGTVIC_V VIOLENT
    ##    <dbl> <fct> <fct>      <fct>  <fct> <fct> <fct>  <dbl> <dbl>    <dbl>   <dbl>
    ##  1  2000 001   2000966984 20009… 40-49 Male  Coll…  1063.    10      NA        0
    ##  2  2000 001   2000951294 20009… 40-49 Fema… Coll…   894.     9      NA        0
    ##  3  2000 001   2000470356 20009… 12-17 Male  Elem…  1317.     9      NA        0
    ##  4  2000 001   2000205990 20001… 35-39 Male  Coll…  1093.     4      NA        0
    ##  5  2000 001   2000361146 20001… 30-34 Fema… Coll…  1101.     4    2202.       1
    ##  6  2000 001   2000879996 20007… 40-49 Male  High…  1063.     6      NA        0
    ##  7  2000 001   2000840437 20007… 40-49 Fema… High…   894.     6      NA        0
    ##  8  2000 001   2000494053 20001… 35-39 Male  High…  1098.    11      NA        0
    ##  9  2000 001   2000833192 20001… 40-49 Fema… High…   899.    11      NA        0
    ## 10  2000 001   2000365150 20005… 30-34 Fema… High…  1101.     8      NA        0
    ## # ℹ 45,766 more rows
    ## # ℹ 6 more variables: WGTVIC_NV <dbl>, NONVIOLENT <dbl>, ADJINC_WT_V <dbl>,
    ## #   VLNT_WGT_V <dbl>, ADJINC_WT_NV <dbl>, NVLNT_WGT_V <dbl>
…
